7 Streamlining data workflows with the tidyverse – Statistical Computing
…
[1] "data.frame"

# Convert to tibble
example_df <- as_tibble(example_df)

# Check the class after conversion
class(example_df)

[1] "tbl_df"     "tbl"        "data.frame"

Now, simply typing example_df will display a neat summary of your data:

example_df

# A tibble: 10,000 × 4
   id    timepoint disease_status blood_pressure
   <chr>     <int> <chr>                   <dbl>
 1 id_1          1 healthy                   133
 2 id_1          2 healthy                   139
 3 id_1          3 healthy                   138
 4 id_1          4 healthy                   125
 5 id_1          5 healthy                   137
 6 id_1          6 healthy                   120
 7 id_1          7 healthy                   134
 8 id_1          8 healthy                   136
 9 id_1          9 healthy                   121
10 id_1         10 healthy                   131
# ℹ 9,990 more rows
…
Note that for a tibble object (i.e. a dataframe that has class tbl_df) to display as a tibble, the tibble package needs to be attached. So always add library(tibble) to the top of your script.

A final, very nice feature of tibbles is that selecting one column using df[, "column"] will return a tibble, rather than a vector. This is typically what we would expect:

example_df[, "id"]

# A tibble: 10,000 × 1
   id   
   <chr>
 1 id_1 
 2 id_1 
 3 id_1 
 4 id_1 
 5 id_1 
 6 id_1 
 7 id_1 
 8 id_1 
 9 id_1 
10 id_1 
# ℹ 9,990 more rows
…
7.4.1 Summary

Here is a concise summary of the content on the dplyr section of R4DS. For more examples, refer the excellent examples within each function’s help file (e.g. ?filter).

To run the examples below, you will need to attach the nycflights13 package and the tidyverse package (or just the dplyr package).

if (!requireNamespace("dplyr", quietly = TRUE)) {
  install.packages("dplyr")
}
library(dplyr)
data(flights, package = "nycflights13")
flights

# A tibble: 336,776 × 19
    year month   day dep_time sched_dep_time dep_delay arr_time sched_arr_time
   <int> <int> <int>    <int>          <int>     <dbl>    <int>          <int>
 1  2013     1     1      517            515         2      830            819
 2  2013     1     1      533            529         4      850            830
 3  2013     1     1      542            540         2      923            850
 4  2013     1     1      544            545        -1     1004           1022
 5  2013     1     1      554            600        -6      812            837
 6  2013     1     1      554            558        -4      740            728
 7  2013     1     1      555            600        -5      913            854
 8  2013     1     1      557            600        -3      709            723
 9  2013     1     1      557            600        -3      838            846
10  2013     1     1      558            600        -2      753            745
# ℹ 336,766 more rows
# ℹ 11 more variables: arr_delay <dbl>, carrier <chr>, flight <int>,
#   tailnum <chr>, origin <chr>, dest <chr>, air_time <dbl>, distance <dbl>,
#   hour <dbl>, minute <dbl>, time_hour <dttm>

7.4.1.1 Rows

The rows functions select rows (filter), order rows (arrange), and select distinct rows (distinct).

filter(): Keeps rows that meet specified conditions.

flights |> filter(month == 1)

# A tibble: 27,004 × 19
    year month   day dep_time sched_dep_time dep_delay arr_time sched_arr_time
   <int> <int> <int>    <int>          <int>     <dbl>    <int>          <int>
 1  2013     1     1      517            515         2      830            819
 2  2013     1     1      533            529         4      850            830
 3  2013     1     1      542            540         2      923            850
 4  2013     1     1      544            545        -1     1004           1022
 5  2013     1     1      554            600        -6      812            837
 6  2013     1     1      554            558        -4      740            728
 7  2013     1     1      555            600        -5      913            854
 8  2013     1     1      557            600        -3      709            723
 9  2013     1     1      557            600        -3      838            846
10  2013     1     1      558            600        -2      753            745
# ℹ 26,994 more rows
# ℹ 11 more variables: arr_delay <dbl>, carrier <chr>, flight <int>,
#   tailnum <chr>, origin <chr>, dest <chr>, air_time <dbl>, distance <dbl>,
#   hour <dbl>, minute <dbl>, time_hour <dttm>

arrange(): Reorders rows based on column values.

flights |> arrange(dep_delay)

# A tibble: 336,776 × 19
    year month   day dep_time sched_dep_time dep_delay arr_time sched_arr_time
   <int> <int> <int>    <int>          <int>     <dbl>    <int>          <int>
 1  2013    12     7     2040           2123       -43       40           2352
 2  2013     2     3     2022           2055       -33     2240           2338
 3  2013    11    10     1408           1440       -32     1549           1559
 4  2013     1    11     1900           1930       -30     2233           2243
 5  2013     1    29     1703           1730       -27     1947           1957
 6  2013     8     9      729            755       -26     1002            955
 7  2013    10    23     1907           1932       -25     2143           2143
 8  2013     3    30     2030           2055       -25     2213           2250
 9  2013     3     2     1431           1455       -24     1601           1631
10  2013     5     5      934            958       -24     1225           1309
# ℹ 336,766 more rows
# ℹ 11 more variables: arr_delay <dbl>, carrier <chr>, flight <int>,
#   tailnum <chr>, origin <chr>, dest <chr>, air_time <dbl>, distance <dbl>,
#   hour <dbl>, minute <dbl>, time_hour <dttm>

distinct(): Returns unique rows or unique combinations of specified columns.

flights |> distinct(origin, dest)

# A tibble: 224 × 2
   origin dest 
   <chr>  <chr>
 1 EWR    IAH  
 2 LGA    IAH  
 3 JFK    MIA  
 4 JFK    BQN  
 5 LGA    ATL  
 6 EWR    ORD  
 7 EWR    FLL  
 8 LGA    IAD  
 9 JFK    MCO  
10 LGA    ORD  
# ℹ 214 more rows

7.4.1.2 Columns

The columns functions create new columns (mutate), select columns (select), rename columns (rename), and relocate columns (relocate).

select(): Chooses and reorders specific columns.

flights |> select(year, month, day, dep_delay)

# A tibble: 336,776 × 4
    year month   day dep_delay
   <int> <int> <int>     <dbl>
 1  2013     1     1         2
 2  2013     1     1         4
 3  2013     1     1         2
 4  2013     1     1        -1
 5  2013     1     1        -6
 6  2013     1     1        -4
 7  2013     1     1        -5
 8  2013     1     1        -3
 9  2013     1     1        -3
10  2013     1     1        -2
# ℹ 336,766 more rows

Selecting a range:

flights |> select(year:day)

# A tibble: 336,776 × 3
    year month   day
   <int> <int> <int>
 1  2013     1     1
 2  2013     1     1
 3  2013     1     1
 4  2013     1     1
 5  2013     1     1
 6  2013     1     1
 7  2013     1     1
 8  2013     1     1
 9  2013     1     1
10  2013     1     1
# ℹ 336,766 more rows

Selecting all columns except some:

flights |> select(!year:arr_delay)

# A tibble: 336,776 × 10
   carrier flight tailnum origin dest  air_time distance  hour minute
   <chr>    <int> <chr>   <chr>  <chr>    <dbl>    <dbl> <dbl>  <dbl>
 1 UA        1545 N14228  EWR    IAH        227     1400     5     15
 2 UA        1714 N24211  LGA    IAH        227     1416     5     29
 3 AA        1141 N619AA  JFK    MIA        160     1089     5     40
 4 B6         725 N804JB  JFK    BQN        183     1576     5     45
 5 DL         461 N668DN  LGA    ATL        116      762     6      0
 6 UA        1696 N39463  EWR    ORD        150      719     5     58
 7 B6         507 N516JB  EWR    FLL        158     1065     6      0
 8 EV        5708 N829AS  LGA    IAD         53      229     6      0
 9 B6          79 N593JB  JFK    MCO        140      944     6      0
10 AA         301 N3ALAA  LGA    ORD        138      733     6      0
# ℹ 336,766 more rows
# ℹ 1 more variable: time_hour <dttm>

mutate(): Creates new columns derived from existing ones.

flights |>
  mutate(speed = distance / air_time * 60) |>
  select(distance, air_time, speed)

# A tibble: 336,776 × 3
   distance air_time speed
      <dbl>    <dbl> <dbl>
 1     1400      227  370.
 2     1416      227  374.
 3     1089      160  408.
 4     1576      183  517.
 5      762      116  394.
 6      719      150  288.
 7     1065      158  404.
 8      229       53  259.
 9      944      140  405.
10      733      138  319.
# ℹ 336,766 more rows

rename(): Changes column names without removing other columns.

flights |> rename(YEAR = year)

# A tibble: 336,776 × 19
    YEAR month   day dep_time sched_dep_time dep_delay arr_time sched_arr_time
   <int> <int> <int>    <int>          <int>     <dbl>    <int>          <int>
 1  2013     1     1      517            515         2      830            819
 2  2013     1     1      533            529         4      850            830
 3  2013     1     1      542            540         2      923            850
 4  2013     1     1      544            545        -1     1004           1022
 5  2013     1     1      554            600        -6      812            837
 6  2013     1     1      554            558        -4      740            728
 7  2013     1     1      555            600        -5      913            854
 8  2013     1     1      557            600        -3      709            723
 9  2013     1     1      557            600        -3      838            846
10  2013     1     1      558            600        -2      753            745
# ℹ 336,766 more rows
# ℹ 11 more variables: arr_delay <dbl>, carrier <chr>, flight <int>,
#   tailnum <chr>, origin <chr>, dest <chr>, air_time <dbl>, distance <dbl>,
#   hour <dbl>, minute <dbl>, time_hour <dttm>

relocate(): Moves columns to a new position within the data frame.

flights |> relocate(carrier, flight)

# A tibble: 336,776 × 19
   carrier flight  year month   day dep_time sched_dep_time dep_delay arr_time
   <chr>    <int> <int> <int> <int>    <int>          <int>     <dbl>    <int>
 1 UA        1545  2013     1     1      517            515         2      830
 2 UA        1714  2013     1     1      533            529         4      850
 3 AA        1141  2013     1     1      542            540         2      923
 4 B6         725  2013     1     1      544            545        -1     1004
 5 DL         461  2013     1     1      554            600        -6      812
 6 UA        1696  2013     1     1      554            558        -4      740
 7 B6         507  2013     1     1      555            600        -5      913
 8 EV        5708  2013     1     1      557            600        -3      709
 9 B6          79  2013     1     1      557            600        -3      838
10 AA         301  2013     1     1      558            600        -2      753
# ℹ 336,766 more rows
# ℹ 10 more variables: sched_arr_time <int>, arr_delay <dbl>, tailnum <chr>,
#   origin <chr>, dest <chr>, air_time <dbl>, distance <dbl>, hour <dbl>,
#   minute <dbl>, time_hour <dttm>

Moving the columns before a specified column:

flights |> relocate(carrier, flight, .before = year)

# A tibble: 336,776 × 19
   carrier flight  year month   day dep_time sched_dep_time dep_delay arr_time
   <chr>    <int> <int> <int> <int>    <int>          <int>     <dbl>    <int>
 1 UA        1545  2013     1     1      517            515         2      830
 2 UA        1714  2013     1     1      533            529         4      850
 3 AA        1141  2013     1     1      542            540         2      923
 4 B6         725  2013     1     1      544            545        -1     1004
 5 DL         461  2013     1     1      554            600        -6      812
 6 UA        1696  2013     1     1      554            558        -4      740
 7 B6         507  2013     1     1      555            600        -5      913
 8 EV        5708  2013     1     1      557            600        -3      709
 9 B6          79  2013     1     1      557            600        -3      838
10 AA         301  2013     1     1      558            600        -2      753
# ℹ 336,766 more rows
# ℹ 10 more variables: sched_arr_time <int>, arr_delay <dbl>, tailnum <chr>,
#   origin <chr>, dest <chr>, air_time <dbl>, distance <dbl>, hour <dbl>,
#   minute <dbl>, time_hour <dttm>

7.4.1.3 Groups & Summaries

The groups and summaries functions group data (group_by) and summarise data within groups (summarise).

group_by(): Splits the data into groups based on one or more columns. The grouping is not visible, and does not create multiple dataframes. See summarise below for how to use the groups.

flights |> group_by(month)

# A tibble: 336,776 × 19
# Groups:   month [12]
    year month   day dep_time sched_dep_time dep_delay arr_time sched_arr_time
   <int> <int> <int>    <int>          <int>     <dbl>    <int>          <int>
 1  2013     1     1      517            515         2      830            819
 2  2013     1     1      533            529         4      850            830
 3  2013     1     1      542            540         2      923            850
 4  2013     1     1      544            545        -1     1004           1022
 5  2013     1     1      554            600        -6      812            837
 6  2013     1     1      554            558        -4      740            728
 7  2013     1     1      555            600        -5      913            854
 8  2013     1     1      557            600        -3      709            723
 9  2013     1     1      557            600        -3      838            846
10  2013     1     1      558            600        -2      753            745
# ℹ 336,766 more rows
# ℹ 11 more variables: arr_delay <dbl>, carrier <chr>, flight <int>,
#   tailnum <chr>, origin <chr>, dest <chr>, air_time <dbl>, distance <dbl>,
#   hour <dbl>, minute <dbl>, time_hour <dttm>
…
7.5 tidyr

if (!requireNamespace("tidyr", quietly = TRUE)) {
  install.packages("tidyr")
}
library(tidyr)
data(billboard, package = "tidyr")
data(cms_patient_experience, package = "tidyr")
billboard

# A tibble: 317 × 79
   artist     track date.entered   wk1   wk2   wk3   wk4   wk5   wk6   wk7   wk8
   <chr>      <chr> <date>       <dbl> <dbl> <dbl> <dbl> <dbl> <dbl> <dbl> <dbl>
 1 2 Pac      Baby… 2000-02-26      87    82    72    77    87    94    99    NA
 2 2Ge+her    The … 2000-09-02      91    87    92    NA    NA    NA    NA    NA
 3 3 Doors D… Kryp… 2000-04-08      81    70    68    67    66    57    54    53
 4 3 Doors D… Loser 2000-10-21      76    76    72    69    67    65    55    59
 5 504 Boyz   Wobb… 2000-04-15      57    34    25    17    17    31    36    49
 6 98^0       Give… 2000-08-19      51    39    34    26    26    19     2     2
 7 A*Teens    Danc… 2000-07-08      97    97    96    95   100    NA    NA    NA
 8 Aaliyah    I Do… 2000-01-29      84    62    51    41    38    35    35    38
 9 Aaliyah    Try … 2000-03-18      59    53    38    28    21    18    16    14
10 Adams, Yo… Open… 2000-08-26      76    76    74    69    68    67    61    58
# ℹ 307 more rows
# ℹ 68 more variables: wk9 <dbl>, wk10 <dbl>, wk11 <dbl>, wk12 <dbl>,
#   wk13 <dbl>, wk14 <dbl>, wk15 <dbl>, wk16 <dbl>, wk17 <dbl>, wk18 <dbl>,
#   wk19 <dbl>, wk20 <dbl>, wk21 <dbl>, wk22 <dbl>, wk23 <dbl>, wk24 <dbl>,
#   wk25 <dbl>, wk26 <dbl>, wk27 <dbl>, wk28 <dbl>, wk29 <dbl>, wk30 <dbl>,
#   wk31 <dbl>, wk32 <dbl>, wk33 <dbl>, wk34 <dbl>, wk35 <dbl>, wk36 <dbl>,
#   wk37 <dbl>, wk38 <dbl>, wk39 <dbl>, wk40 <dbl>, wk41 <dbl>, wk42 <dbl>, …

cms_patient_experience

# A tibble: 500 × 5
   org_pac_id org_nm                           measure_cd measure_title prf_rate
   <chr>      <chr>                            <chr>      <chr>            <dbl>
 1 0446157747 USC CARE MEDICAL GROUP INC       CAHPS_GRP… CAHPS for MI…       63
 2 0446157747 USC CARE MEDICAL GROUP INC       CAHPS_GRP… CAHPS for MI…       87
 3 0446157747 USC CARE MEDICAL GROUP INC       CAHPS_GRP… CAHPS for MI…       86
 4 0446157747 USC CARE MEDICAL GROUP INC       CAHPS_GRP… CAHPS for MI…       57
 5 0446157747 USC CARE MEDICAL GROUP INC       CAHPS_GRP… CAHPS for MI…       85
 6 0446157747 USC CARE MEDICAL GROUP INC       CAHPS_GRP… CAHPS for MI…       24
 7 0446162697 ASSOCIATION OF UNIVERSITY PHYSI… CAHPS_GRP… CAHPS for MI…       59
 8 0446162697 ASSOCIATION OF UNIVERSITY PHYSI… CAHPS_GRP… CAHPS for MI…       85
 9 0446162697 ASSOCIATION OF UNIVERSITY PHYSI… CAHPS_GRP… CAHPS for MI…       83
10 0446162697 ASSOCIATION OF UNIVERSITY PHYSI… CAHPS_GRP… CAHPS for MI…       63
# ℹ 490 more rows
…
7.5.1.2 tidyr

pivot_longer():

Converts data from wide to long format by gathering multiple columns into key-value pairs (results in fewer columns, more rows).

billboard |> 
  pivot_longer(
    cols = starts_with("wk"), # columns to pivot (display along rows)
    names_to = "week",  # new column for the column names
    values_to = "rank", # new column for the values
    values_drop_na = TRUE # drop rows with NA values
  )

# A tibble: 5,307 × 5
   artist  track                   date.entered week   rank
   <chr>   <chr>                   <date>       <chr> <dbl>
 1 2 Pac   Baby Don't Cry (Keep... 2000-02-26   wk1      87
 2 2 Pac   Baby Don't Cry (Keep... 2000-02-26   wk2      82
 3 2 Pac   Baby Don't Cry (Keep... 2000-02-26   wk3      72
 4 2 Pac   Baby Don't Cry (Keep... 2000-02-26   wk4      77
 5 2 Pac   Baby Don't Cry (Keep... 2000-02-26   wk5      87
 6 2 Pac   Baby Don't Cry (Keep... 2000-02-26   wk6      94
 7 2 Pac   Baby Don't Cry (Keep... 2000-02-26   wk7      99
 8 2Ge+her The Hardest Part Of ... 2000-09-02   wk1      91
 9 2Ge+her The Hardest Part Of ... 2000-09-02   wk2      87
10 2Ge+her The Hardest Part Of ... 2000-09-02   wk3      92
# ℹ 5,297 more rows

pivot_wider():

Transforms long data to wide format by spreading key-value pairs across columns (results in more columns, fewer rows).

cms_patient_experience |> 
  pivot_wider(
    id_cols = c("org_pac_id", "org_nm"), # columns to keep as identifiers
    names_from = measure_cd, # column to spread (unique entries become columns)
    values_from = prf_rate # column to use for values (values become cell contents)
  )

# A tibble: 95 × 8
   org_pac_id org_nm CAHPS_GRP_1 CAHPS_GRP_2 CAHPS_GRP_3 CAHPS_GRP_5 CAHPS_GRP_8
   <chr>      <chr>        <dbl>       <dbl>       <dbl>       <dbl>       <dbl>
 1 0446157747 USC C…          63          87          86          57          85
 2 0446162697 ASSOC…          59          85          83          63          88
 3 0547164295 BEAVE…          49          NA          75          44          73
 4 0749333730 CAPE …          67          84          85          65          82
 5 0840104360 ALLIA…          66          87          87          64          87
 6 0840109864 REX H…          73          87          84          67          91
 7 0840513552 SCL H…          58          83          76          58          78
 8 0941545784 GRITM…          46          86          81          54          NA
 9 1052612785 COMMU…          65          84          80          58          87
10 1254237779 OUR L…          61          NA          NA          65          NA
# ℹ 85 more rows
# ℹ 1 more variable: CAHPS_GRP_12 <dbl>
…
